C:\Users\asus\eclipse-workspace\SpringBootTestApplication\src\main\java\com\main\SpringMainApplication.java
C:\Users\asus\eclipse-workspace\SpringBootTestApplication\src\main\java\com\main\controller\LoginController.java
C:\Users\asus\eclipse-workspace\SpringBootTestApplication\src\main\java\com\main\model\Login.java
